{
  "content": [
    {
      "firstName": "Alley aaBd",
      "lastName": "Alley aaBd",
      "birthDate": "1997-09-07",
      "phones": [
        {
          "number": "4609818618",
          "phoneType": "primary",
          "countryCode": "US",
          "primary": false
        }
      ],
      "email": "LoadTest_wh4xrn7fje9705865297__1@qa4life.com",
      "hasPhoto": false,
      "locationId": "11ed6bf2-8436-ba40-950e-f700f1c63672",
      "employmentData": {
        "employer": "ABC",
        "occupation": "Qualit Analyst"
      },
      "invalidAddress": false,
      "number": "000075",
      "usePrimaryMemberAddress": false,
      "id": "11ed6c00-6f11-f145-950e-f700f1c63672",
      "organizationId": "4a1e0e82-4048-402f-9db0-3c42b5640cee",
      "address": {
        "id": "11ed6c00-6f14-b066-950e-f700f1c63672",
        "address1": "AR-107",
        "address2": "Sherwood",
        "city": "Little Rock",
        "countryCode": "US",
        "provinceCode": "NC",
        "postalCode": "72120",
        "province": {
          "id": "NC",
          "abbreviation": "NC",
          "code": "US-NC"
        },
        "country": {
          "id": "US",
          "abbreviation": "USA",
          "code": "840"
        }
      },
      "personalDataHint": {},
      "active": true,
      "status": "ACTIVE",
      "agreementNumber": "edcdc8b608694a8",
      "memberSince": "2022-01-15T00:00:00Z",
      "memberSinceDate": "2022-01-14",
      "primaryMemberNumber": "000075"
    },
    {
      "firstName": "Alley aAeg",
      "lastName": "Alley aAeg",
      "birthDate": "1997-09-07",
      "phones": [
        {
          "number": "6355426298",
          "phoneType": "primary",
          "countryCode": "US",
          "primary": false
        }
      ],
      "email": "LoadTest_2bvrlft9dk0854615813__1@qa4life.com",
      "hasPhoto": false,
      "locationId": "11ed80d5-510f-c2c2-ab90-a73cf669688b",
      "employmentData": {
        "employer": "ABC",
        "occupation": "Qualit Analyst"
      },
      "invalidAddress": false,
      "number": "0000SG",
      "usePrimaryMemberAddress": false,
      "id": "11ed80d5-ad64-6300-aa76-13c416a64463",
      "organizationId": "f097e6d4-dcfa-4717-821e-348d08221ca4",
      "address": {
        "id": "11ed80d5-ad66-d405-aa76-13c416a64463",
        "address1": "AR-107",
        "address2": "Sherwood",
        "city": "Little Rock",
        "countryCode": "US",
        "provinceCode": "NC",
        "postalCode": "72120",
        "province": {
          "id": "NC",
          "abbreviation": "NC",
          "code": "US-NC"
        },
        "country": {
          "id": "US",
          "abbreviation": "USA",
          "code": "840"
        }
      },
      "personalDataHint": {},
      "active": true,
      "status": "ACTIVE",
      "agreementNumber": "e4bb2c6fd0f64d4",
      "memberSince": "2022-01-15T00:00:00Z",
      "memberSinceDate": "2022-01-14",
      "primaryMemberNumber": "0000SG"
    },
    {
      "firstName": "Alley aAFV",
      "lastName": "Alley aAFV",
      "birthDate": "1997-09-07",
      "phones": [
        {
          "number": "1444643101",
          "phoneType": "primary",
          "countryCode": "US",
          "primary": false
        }
      ],
      "email": "LoadTest_z5glimlx4x7420550788__1@qa4life.com",
      "hasPhoto": false,
      "locationId": "11ed77ca-eb7a-dca2-aa76-13c416a64463",
      "employmentData": {
        "employer": "ABC",
        "occupation": "Qualit Analyst"
      },
      "invalidAddress": false,
      "number": "00011K",
      "usePrimaryMemberAddress": false,
      "id": "11ed7811-789f-5bed-a66d-cf7358b1c38a",
      "organizationId": "0929d261-b444-4b05-ab54-ed342e253abb",
      "address": {
        "id": "11ed7811-78a1-57be-a66d-cf7358b1c38a",
        "address1": "AR-107",
        "address2": "Sherwood",
        "city": "Little Rock",
        "countryCode": "US",
        "provinceCode": "NC",
        "postalCode": "72120",
        "province": {
          "id": "NC",
          "abbreviation": "NC",
          "code": "US-NC"
        },
        "country": {
          "id": "US",
          "abbreviation": "USA",
          "code": "840"
        }
      },
      "personalDataHint": {},
      "active": true,
      "status": "ACTIVE",
      "agreementNumber": "b8cd015d2e04413",
      "memberSince": "2022-01-15T00:00:00Z",
      "memberSinceDate": "2022-01-14",
      "primaryMemberNumber": "00011K"
    },
    {
      "firstName": "Alley Aagq",
      "lastName": "Alley Aagq",
      "birthDate": "1997-09-07",
      "phones": [
        {
          "number": "2756372019",
          "phoneType": "primary",
          "countryCode": "US",
          "primary": false
        }
      ],
      "email": "LoadTest_crxlra7y028320567758__1@qa4life.com",
      "hasPhoto": false,
      "locationId": "11ed8292-7ea7-68e4-a65c-07b95fe3f4c0",
      "employmentData": {
        "employer": "ABC",
        "occupation": "Qualit Analyst"
      },
      "invalidAddress": false,
      "number": "0000Z5",
      "usePrimaryMemberAddress": false,
      "id": "11ed8292-91a5-c6c8-a240-770eb53c28cb",
      "organizationId": "5ffa00cb-bf47-4cf9-9057-942bdb2f19ab",
      "address": {
        "id": "11ed8292-91a7-9b89-a240-770eb53c28cb",
        "address1": "AR-107",
        "address2": "Sherwood",
        "city": "Little Rock",
        "countryCode": "US",
        "provinceCode": "NC",
        "postalCode": "72120",
        "province": {
          "id": "NC",
          "abbreviation": "NC",
          "code": "US-NC"
        },
        "country": {
          "id": "US",
          "abbreviation": "USA",
          "code": "840"
        }
      },
      "personalDataHint": {},
      "active": true,
      "status": "ACTIVE",
      "agreementNumber": "506cfd6f277e4d9",
      "memberSince": "2022-01-15T00:00:00Z",
      "memberSinceDate": "2022-01-14",
      "primaryMemberNumber": "0000Z5"
    },
    {
      "firstName": "Alley AAlo",
      "lastName": "Alley AAlo",
      "birthDate": "1997-09-07",
      "phones": [
        {
          "number": "7748299161",
          "phoneType": "primary",
          "countryCode": "US",
          "primary": false
        }
      ],
      "email": "LoadTest_l5moiu2ntz9315750257__1@qa4life.com",
      "hasPhoto": false,
      "locationId": "11ed7e5d-98d2-9820-ab90-a73cf669688b",
      "employmentData": {
        "employer": "ABC",
        "occupation": "Qualit Analyst"
      },
      "invalidAddress": false,
      "number": "0003QD",
      "usePrimaryMemberAddress": false,
      "id": "11ed7e5e-335d-6e63-aa76-13c416a64463",
      "organizationId": "c9631acf-f776-48b6-83b4-08ddb55b2faa",
      "address": {
        "id": "11ed7e5e-335f-9144-aa76-13c416a64463",
        "address1": "AR-107",
        "address2": "Sherwood",
        "city": "Little Rock",
        "countryCode": "US",
        "provinceCode": "NC",
        "postalCode": "72120",
        "province": {
          "id": "NC",
          "abbreviation": "NC",
          "code": "US-NC"
        },
        "country": {
          "id": "US",
          "abbreviation": "USA",
          "code": "840"
        }
      },
      "personalDataHint": {},
      "active": true,
      "status": "ACTIVE",
      "agreementNumber": "913b02bc616a481",
      "memberSince": "2022-01-15T00:00:00Z",
      "memberSinceDate": "2022-01-14",
      "primaryMemberNumber": "0003QD"
    },
    {
      "firstName": "Alley AaQm",
      "lastName": "Alley AaQm",
      "birthDate": "1997-09-07",
      "phones": [
        {
          "number": "8036374453",
          "phoneType": "primary",
          "countryCode": "US",
          "primary": false
        }
      ],
      "email": "LoadTest_esv3k7vruz2262732013__1@qa4life.com",
      "hasPhoto": false,
      "locationId": "11ed7d71-b295-034f-a66d-cf7358b1c38a",
      "employmentData": {
        "employer": "ABC",
        "occupation": "Qualit Analyst"
      },
      "invalidAddress": false,
      "number": "00000V",
      "usePrimaryMemberAddress": false,
      "id": "11ed7d71-bd60-13c5-a66d-cf7358b1c38a",
      "organizationId": "49fb9da9-3976-4753-8b4b-b21ea3825a6f",
      "address": {
        "id": "11ed7d71-bd61-e886-a66d-cf7358b1c38a",
        "address1": "AR-107",
        "address2": "Sherwood",
        "city": "Little Rock",
        "countryCode": "US",
        "provinceCode": "NC",
        "postalCode": "72120",
        "province": {
          "id": "NC",
          "abbreviation": "NC",
          "code": "US-NC"
        },
        "country": {
          "id": "US",
          "abbreviation": "USA",
          "code": "840"
        }
      },
      "personalDataHint": {},
      "active": true,
      "status": "ACTIVE",
      "agreementNumber": "69410554093e413",
      "memberSince": "2022-01-15T00:00:00Z",
      "memberSinceDate": "2022-01-14",
      "primaryMemberNumber": "00000V"
    },
    {
      "firstName": "Alley AAvq",
      "lastName": "Alley AAvq",
      "birthDate": "1997-09-07",
      "phones": [
        {
          "number": "2317685573",
          "phoneType": "primary",
          "countryCode": "US",
          "primary": false
        }
      ],
      "email": "LoadTest_nqa70eaff14750936863__1@qa4life.com",
      "hasPhoto": false,
      "locationId": "11ed7c8e-befb-172b-a66d-cf7358b1c38a",
      "employmentData": {
        "employer": "ABC",
        "occupation": "Qualit Analyst"
      },
      "invalidAddress": false,
      "number": "0000ZB",
      "usePrimaryMemberAddress": false,
      "id": "11ed7c91-df12-d98d-aa76-13c416a64463",
      "organizationId": "5c4ec20f-d28f-4d37-a072-b76b813e1078",
      "address": {
        "id": "11ed7c91-df15-4a8f-aa76-13c416a64463",
        "address1": "AR-107",
        "address2": "Sherwood",
        "city": "Little Rock",
        "countryCode": "US",
        "provinceCode": "NC",
        "postalCode": "72120",
        "province": {
          "id": "NC",
          "abbreviation": "NC",
          "code": "US-NC"
        },
        "country": {
          "id": "US",
          "abbreviation": "USA",
          "code": "840"
        }
      },
      "personalDataHint": {},
      "active": true,
      "status": "ACTIVE",
      "agreementNumber": "26a5b1e962fc425",
      "memberSince": "2022-01-15T00:00:00Z",
      "memberSinceDate": "2022-01-14",
      "primaryMemberNumber": "0000ZB"
    },
    {
      "firstName": "Alley aAXp",
      "lastName": "Alley aAXp",
      "birthDate": "1997-09-07",
      "phones": [
        {
          "number": "0509254550",
          "phoneType": "primary",
          "countryCode": "US",
          "primary": false
        }
      ],
      "email": "LoadTest_8w65wxe22e3839064432__1@qa4life.com",
      "hasPhoto": false,
      "locationId": "11ed7c53-3e00-4c04-a66d-cf7358b1c38a",
      "employmentData": {
        "employer": "ABC",
        "occupation": "Qualit Analyst"
      },
      "invalidAddress": false,
      "number": "0000DQ",
      "usePrimaryMemberAddress": false,
      "id": "11ed7c53-478c-9ab4-a66d-cf7358b1c38a",
      "organizationId": "5f0ea4ba-31f1-4482-bb0c-b295e46a3e18",
      "address": {
        "id": "11ed7c53-478e-4865-a66d-cf7358b1c38a",
        "address1": "AR-107",
        "address2": "Sherwood",
        "city": "Little Rock",
        "countryCode": "US",
        "provinceCode": "NC",
        "postalCode": "72120",
        "province": {
          "id": "NC",
          "abbreviation": "NC",
          "code": "US-NC"
        },
        "country": {
          "id": "US",
          "abbreviation": "USA",
          "code": "840"
        }
      },
      "personalDataHint": {},
      "active": true,
      "status": "ACTIVE",
      "agreementNumber": "86510a7add8e401",
      "memberSince": "2022-01-15T00:00:00Z",
      "memberSinceDate": "2022-01-14",
      "primaryMemberNumber": "0000DQ"
    },
    {
      "firstName": "Alley ABCD",
      "lastName": "Alley ABCD",
      "birthDate": "1997-09-07",
      "phones": [
        {
          "number": "3892229685",
          "phoneType": "primary",
          "countryCode": "US",
          "primary": false
        }
      ],
      "email": "LoadTest_q9eo9x9flq3726071097__1@qa4life.com",
      "hasPhoto": false,
      "locationId": "11ed7e4a-9782-1e0b-ab90-a73cf669688b",
      "employmentData": {
        "employer": "ABC",
        "occupation": "Qualit Analyst"
      },
      "invalidAddress": false,
      "number": "0004GP",
      "usePrimaryMemberAddress": false,
      "id": "11ed7e4b-cd15-ac98-aa76-13c416a64463",
      "organizationId": "6d05b88f-8744-418c-b9c5-2aa850c5441d",
      "address": {
        "id": "11ed7e4b-cd17-f689-aa76-13c416a64463",
        "address1": "AR-107",
        "address2": "Sherwood",
        "city": "Little Rock",
        "countryCode": "US",
        "provinceCode": "NC",
        "postalCode": "72120",
        "province": {
          "id": "NC",
          "abbreviation": "NC",
          "code": "US-NC"
        },
        "country": {
          "id": "US",
          "abbreviation": "USA",
          "code": "840"
        }
      },
      "personalDataHint": {},
      "active": true,
      "status": "ACTIVE",
      "agreementNumber": "7d4b9b210fff4c3",
      "memberSince": "2022-01-15T00:00:00Z",
      "memberSinceDate": "2022-01-14",
      "primaryMemberNumber": "0004GP"
    },
    {
      "firstName": "Alley aBDj",
      "lastName": "Alley aBDj",
      "birthDate": "1997-09-07",
      "phones": [
        {
          "number": "8577574459",
          "phoneType": "primary",
          "countryCode": "US",
          "primary": false
        }
      ],
      "email": "LoadTest_wzrvgm74fs9356313186__1@qa4life.com",
      "hasPhoto": false,
      "locationId": "11ed7810-5131-5202-a66d-cf7358b1c38a",
      "employmentData": {
        "employer": "ABC",
        "occupation": "Qualit Analyst"
      },
      "invalidAddress": false,
      "number": "0000C3",
      "usePrimaryMemberAddress": false,
      "id": "11ed7829-f7e4-74e0-aa76-13c416a64463",
      "organizationId": "fb076a37-59c5-4a4f-b1f3-903084910669",
      "address": {
        "id": "11ed7829-f7e6-e5e3-aa76-13c416a64463",
        "address1": "AR-107",
        "address2": "Sherwood",
        "city": "Little Rock",
        "countryCode": "US",
        "provinceCode": "NC",
        "postalCode": "72120",
        "province": {
          "id": "NC",
          "abbreviation": "NC",
          "code": "US-NC"
        },
        "country": {
          "id": "US",
          "abbreviation": "USA",
          "code": "840"
        }
      },
      "personalDataHint": {},
      "active": true,
      "status": "ACTIVE",
      "agreementNumber": "520d392257ee4e0",
      "memberSince": "2022-01-15T00:00:00Z",
      "memberSinceDate": "2022-01-14",
      "primaryMemberNumber": "0000C3"
    }
  ],
  "pageable": {
    "sort": {
      "sorted": true,
      "unsorted": false,
      "empty": false
    },
    "pageNumber": 0,
    "pageSize": 10,
    "offset": 0,
    "paged": true,
    "unpaged": false
  },
  "last": false,
  "totalElements": 825087,
  "totalPages": 82509,
  "sort": {
    "sorted": true,
    "unsorted": false,
    "empty": false
  },
  "first": true,
  "number": 0,
  "numberOfElements": 10,
  "size": 10,
  "empty": false
}